Parte 2
…
### 1.3. Unir multiples archivos

Esta función te permite unirlos.

```r
Todos_GPS <- do.call("rbind",Lista_GPS)
```
Pero **ojo** el numero de columnas y nombres de las columnas debe ser el mismo.

```r
Todos_GPS
```

```
## # A tibble: 10,440 x 5
##    Latitude Longitude DateGMT    TimeGMT  IDs  
##       <dbl>     <dbl> <chr>      <time>   <chr>
##  1    -27.2     -109. 02/11/2017 17:05:30 GPS01
##  2    -27.2     -109. 02/11/2017 17:09:35 GPS01
##  3    -27.2     -109. 02/11/2017 17:13:50 GPS01
##  4    -27.2     -109. 02/11/2017 17:17:59 GPS01
##  5    -27.2     -109. 02/11/2017 17:22:13 GPS01
##  6    -27.2     -109. 02/11/2017 17:26:25 GPS01
##  7    -27.2     -109. 02/11/2017 17:30:37 GPS01
##  8    -27.2     -109. 02/11/2017 17:34:49 GPS01
##  9    -27.2     -109. 02/11/2017 17:39:01 GPS01
## 10    -27.2     -109. 02/11/2017 17:43:09 GPS01
## # ... with 10,430 more rows
```
…
