Parte 1
…
### 1.7. Unir multiples archivos

Esta función te permite unirlos.

```r
Todos_GPS <- do.call("rbind",Lista_GPS)
```
Pero **ojo** el numero de columnas y nombres de las columnas debe ser lo mismo.

```r
Todos_GPS
```

```
## # A tibble: 104,400 x 5
##    Latitude Longitude DateGMT    TimeGMT  IDs  
##       <dbl>     <dbl> <chr>      <time>   <chr>
##  1    -27.2     -109. 02/11/2017 17:05:30 ID01 
##  2    -27.2     -109. 02/11/2017 17:09:35 ID01 
##  3    -27.2     -109. 02/11/2017 17:13:50 ID01 
##  4    -27.2     -109. 02/11/2017 17:17:59 ID01 
##  5    -27.2     -109. 02/11/2017 17:22:13 ID01 
##  6    -27.2     -109. 02/11/2017 17:26:25 ID01 
##  7    -27.2     -109. 02/11/2017 17:30:37 ID01 
##  8    -27.2     -109. 02/11/2017 17:34:49 ID01 
##  9    -27.2     -109. 02/11/2017 17:39:01 ID01 
## 10    -27.2     -109. 02/11/2017 17:43:09 ID01 
## # ... with 104,390 more rows
```
…
